,region_id,predicate,predicate_def,synset,caption,example_mapping,roles_example,role0,role1,role2,role3,role4,value0,value1,value2,value3,value4
0,1885,see,perceive by sight or have the power to perceive by sight,see.v.01,trees are seen in the background,"{'1': 'thing viewed', '0': 'viewer'}","<example name=""see an NP"">
  <text>
    John saw the President.
  </text>
  <arg n=""0"">John</arg>
  <rel>saw</rel>
  <arg n=""1"">the President</arg>
</example>",viewer,place,manner,time,thing viewed,,,,,1058549
